<?xml version="1.0" encoding="utf-8"?>
<!-- Generator: Adobe Illustrator 19.2.0, SVG Export Plug-In . SVG Version: 6.00 Build 0)  -->
<svg version="1.1" id="Layer_1" xmlns="http://www.w3.org/2000/svg" xmlns:xlink="http://www.w3.org/1999/xlink" x="0px" y="0px"
	 viewBox="0 0 20.8 43" style="enable-background:new 0 0 20.8 43;" xml:space="preserve">
<style type="text/css">
	.st0{fill:#FFFFFF;}
</style>
<path class="st0" d="M18.8-0.7c0.5,0,0.9,0.2,1.3,0.5c0.8,0.7,1,2,0.2,2.8L4.4,21.5l15.9,18.9c0.7,0.8,0.6,2.1-0.2,2.8
	c-0.8,0.7-2.1,0.6-2.8-0.2l-17-20.2c-0.6-0.7-0.6-1.8,0-2.6L17.3,0C17.7-0.5,18.2-0.7,18.8-0.7z"/>
</svg>
