<?xml version="1.0" encoding="utf-8"?>
<!-- Generator: Adobe Illustrator 19.2.0, SVG Export Plug-In . SVG Version: 6.00 Build 0)  -->
<svg version="1.1" id="Layer_1" xmlns="http://www.w3.org/2000/svg" xmlns:xlink="http://www.w3.org/1999/xlink" x="0px" y="0px"
	 viewBox="0 0 324.7 84.4" style="enable-background:new 0 0 324.7 84.4;" xml:space="preserve">
<style type="text/css">
	.st0{fill:#FFFFFF;}
</style>
<g>
	<path class="st0" d="M21.9,54c-0.2,0.5-0.9,0.7-1.9,0.7c-0.1,0-0.2,0-0.4,0s-0.4-0.1-0.6-0.1c-0.4-0.1-0.6-0.1-0.9-0.1
		c-0.2,0-0.4,0-0.5,0.1c-0.3,0.2-0.3,0.9-0.2,1.4c0,0.3,0,0.6,0,0.8c-0.1,0.5-0.2,1.1-0.3,1.7c0,0.3,0,0.5-0.1,0.8l-0.1,0.6
		c-0.1,0.6-0.1,1.3-0.2,1.9c0,0.2,0,0.5,0,0.9c0.1,1,0.1,2.2-0.4,2.7c-0.3,0.3-0.6,0.4-1.1,0.2c-1-0.2-0.9-1.5-0.8-2.2v-0.2
		c0-1,0.2-2,0.3-2.9l0.1-0.7c0-0.3,0-0.7,0-1.1c0-0.3,0-0.5,0.1-0.8c0-0.5,0-0.9,0-1.4c0-0.1,0-0.3,0-0.4c0-0.3,0.1-0.5,0-0.7
		c-0.1-0.1-0.2-0.1-0.3-0.1c-0.1,0-0.2,0-0.4,0c-0.1,0-0.2,0-0.2,0h-0.1c-0.4,0-0.7-0.1-1-0.1c-0.2,0-0.4,0.1-0.6,0.1s-0.4,0-0.5,0
		c-0.1,0-0.2,0-0.3,0c-0.3,0-0.5,0-0.7,0.1c-0.2,0.2-0.3,0.7-0.3,1.1v0.1c-0.1,0.2-0.1,0.4-0.1,0.6c-0.1,0.3-0.1,0.5-0.1,0.8
		c0,0.6-0.1,1.2-0.3,1.7c0,0.4-0.1,0.8-0.1,1.1c-0.1,0.5-0.1,0.9-0.1,1.3c0,0.7,0,1.5-0.3,2.2c-0.1,0.6-0.8,1.3-1.5,1.3
		c-0.3,0-0.5-0.2-0.7-0.4c-0.5-0.6-0.1-1.8,0.1-2.8c0.1-0.3,0.2-0.6,0.2-0.7c0.2-1.1,0.3-2.4,0.4-3.7l0.1-1.1c0-0.2,0-0.4,0.1-0.5
		c0-0.4,0.1-0.6,0-0.8c0-0.1-0.3-0.2-0.8-0.2c-0.3,0-0.6,0-1,0c-0.4,0.1-0.8,0.1-1.1,0.1c-0.5,0-1.2,0-1.6-0.5
		c-0.2-0.3-0.2-0.8,0-1.4c0.2-0.5,0.5-0.6,0.9-0.6l0.3-0.1c0.4,0,0.9-0.1,1.3-0.1c0.2,0,0.3,0,0.5,0c0.1,0.1,0.1,0.1,0.2,0.1H7
		c0.2,0,0.4,0,0.5,0c0.3,0,0.5,0,0.7-0.1c0.3-0.2,0.3-0.7,0.3-1.2c0-0.2,0-0.4,0-0.7c0.2-0.7,0.3-1.5,0.4-2.3
		c0.1-0.8,0.2-1.5,0.3-2.3c0.1-0.1,0.1-0.2,0.1-0.4c0.2-0.6,0.3-1.2,0.2-1.5C9.3,44,8.9,44,8.1,44.1c-0.3,0-0.5,0.1-0.8,0.1
		c-1-0.1-2-0.2-2.4-0.6c-0.3-0.3-0.4-0.9-0.3-1.3c0.1-0.4,0.3-0.7,0.6-0.8c0.1-0.1,0.2-0.1,0.3-0.1c0.2,0,0.3,0,0.6,0.1
		c0.1,0,0.2,0,0.4,0h0.4c0.6,0.1,1.2,0.1,1.8,0.1c0.6,0,0.9,0,1-0.1c0.2-0.2,0.3-0.8,0.3-1.6c0-0.3,0-0.5,0-0.8
		c0.1-0.1,0.1-0.6,0.1-1.1c0-3.5,0.1-7.2,1.5-7.2c0.1,0,0.3,0.1,0.5,0.2c0.8,0.4,0.6,1.6,0.4,2.5c-0.1,0.3-0.1,0.6-0.1,0.8
		c0,1.3-0.1,2.5-0.2,3.7l-0.1,0.3c0,0.4-0.1,0.8-0.1,1.4c0,0.3,0,0.5,0,0.7c0,0.5-0.1,0.9,0,1c0.1,0.3,0.5,0.4,1.1,0.4
		c0.3,0,0.7-0.1,1-0.1c0.3,0,0.5,0,0.7-0.1H15c0.2,0,0.4,0.1,0.5,0.1c0.4,0,0.7,0,0.8-0.1c0.2-0.2,0.3-0.9,0.5-2.1
		c0-0.4,0.1-0.8,0.1-1.1c0.2-1.2,0.4-2.1,0.4-3.4v-0.3c0-0.1,0-0.4,0-0.7c-0.1-1.1-0.1-2.8,0.9-3c0.5,0,0.8,0.1,1.1,0.4
		c0.8,1,0.4,3.5-0.1,5.7c0,0.4-0.1,0.7-0.1,0.9c0,0.2-0.1,0.5-0.2,0.8c-0.3,1.8-0.3,2.6-0.1,2.8c0.2,0.2,0.6,0.2,1,0
		c0.3-0.1,0.7-0.2,1-0.2c0.1,0,0.2,0,0.3,0.1c0.7,0.1,1.4,0.9,1.3,1.7c-0.1,0.8-1,1.2-1.9,1.2h-0.1c-0.2,0-0.5,0-0.7-0.1
		c-0.2,0-0.4,0-0.6,0s-0.4,0-0.5,0.1c-0.3,0.2-0.3,0.7-0.3,1.2c0,0.1,0,0.3,0,0.4c0,0.2-0.1,0.4-0.1,0.6v0.6
		C18.1,47.8,18,48.4,18,49c-0.2,0.8-0.3,1.8-0.3,2.7v0.1l0.1,0.1h0.1h0.3c0.2,0,0.4,0,0.6,0c0.4,0,0.7,0,1,0c0.1,0,0.2-0.1,0.3-0.1
		c0.4,0,0.7,0,0.9,0c0.4,0.2,0.7,0.5,0.9,0.9S22.1,53.6,21.9,54z M16.2,44.3c-0.2-0.1-1-0.2-1.7-0.2c-0.6,0-1.7,0-2,0.1
		c-0.7,0-0.7,0.2-0.8,0.9v0.1c0,0.1,0,0.2-0.1,0.3c-0.1,0.6-0.1,1.2-0.2,1.7c0,0.5-0.1,1-0.1,1.5c-0.1,0.3-0.2,0.5-0.2,0.8
		c-0.1,0.3-0.2,0.6-0.2,1.1c-0.1,0.1-0.1,0.3-0.1,0.4c-0.1,0.4-0.2,0.7-0.1,1.1c0,0.4,0.3,0.5,0.6,0.5c0,0,0,0,0.1,0l0.2-0.1
		c0.7,0,1.4-0.1,2.1-0.1c0.1,0,0.3,0,0.5,0c0.1,0,0.2,0,0.4,0c0.4,0,0.6-0.1,0.8-0.3c0.1-0.1,0.1-0.6,0.2-1.2c0-0.2,0-0.4,0-0.6
		c0.1-0.7,0.1-1.2,0.2-1.8c0-0.7,0-1.5,0.2-2.4c0-0.1,0.1-0.3,0.1-0.5C16.2,44.9,16.3,44.5,16.2,44.3z"/>
	<path class="st0" d="M47.1,75.6c0,0.4,0.1,1.2,0,1.6c-0.2,0.4-1,0.7-1.7,0.4c-0.9-0.4-0.4-1.6-0.5-2.8c0-0.5-0.1-1-0.2-1.6
		c-0.1-1.7-0.1-3.4-0.1-5.1c-0.1-1.7,0-3.4,0-5.2c0-0.8-0.1-1.6-0.1-2.5c0.1-4.7,0-8.9,0.1-13.6c0.1-0.9,0-1.8,0-2.9
		c0-1,0-2.5-0.4-2.8c-0.3-0.1-1.4,0-2-0.1c-0.6-0.1-1.3-0.2-1.9-0.2c-0.9-0.1-2,0.1-2.9,0.2c-0.6,0.1-2.4,0.1-2.7,0.6
		c-0.2,0.4,0.1,1.3,0.1,1.8c0,1.3-0.3,2.7-0.3,4.2c0.1,0.5,0.2,1,0.2,1.5c0.1,1.8-0.4,3.8-0.3,5.7c0,0.6,0.1,1.2,0.2,1.9
		c0,0.5-0.1,1-0.1,1.5c0.1,0.4,0.2,0.9,0.2,1.3c0.1,0.9,0,1.9,0,2.9c0,0.9,0.1,1.9,0,2.7c-0.1,1.8-0.3,3.6-0.2,5.5
		c0,0.5,0.2,1.1,0.2,1.7c0,0.9,0,4.8-1.9,3.4c-1-0.7-0.6-3.7-0.5-4.8c0.1-1.2,0-2.7,0.1-4c0.1-1.8,0.2-3.7,0.1-5.4
		c0-0.7-0.2-1.4-0.2-2c0-0.4,0.1-0.8,0.1-1.1c0.1-0.9-0.1-1.7,0-2.5c0-0.9,0-1.7,0-2.5c0.1-0.9,0.2-1.7,0.2-2.6
		c0-0.8-0.1-1.6-0.2-2.4c0-1.6,0.1-3.1,0.1-5c0.1-3.7,0-6.7,0.1-10.2c0-1.8,0.2-3.4,0.1-5.1c-0.1-1.6-0.2-3.1-0.2-5
		c0.1-3.3-0.3-6.4-0.2-10c0-0.7,0-1.7,0.1-2.6c0-1.6-0.4-2.3,0.6-2.4c0.4,0,1.2,0.1,1.4,0.6c0.2,0.4,0,1.4,0,2.2
		c0,2.4-0.2,4.7-0.2,6.9c0.1,4,0.7,8,0.7,12.1c0,0.7-0.1,1.3-0.2,2c-0.1,0.7,0,1.4,0,2.1c-0.1,1-0.4,3.6,0,4.5
		c0.3,0.5,1,0.6,1.5,0.7c0.7,0.1,1.3-0.1,2.1-0.1c0.9,0,1.4-0.1,2.2-0.2c1.4,0,3.4,0.2,3.9-0.7c0.4-0.6,0.3-2.3,0.3-3.6
		c0-2.7,0.2-4.5,0.2-7.3c0-1.3,0-2.6,0-3.7c0-3.6-0.2-7-0.1-10.9c0-0.5,0-1.2-0.1-1.8c0-0.6,0-1.5,0.3-1.8s1.3-0.3,1.7,0.2
		c0.3,0.4,0,2,0,3.1c0,1.2-0.1,2.3-0.2,3.2c-0.1,2.4,0.3,4.5,0.4,6.2c0,0.4-0.1,0.8-0.1,1.3c0.1,2.7,0.3,5.9,0.1,8.7
		c-0.3,3.4-0.2,6.8-0.2,10.2c0,0.5-0.1,0.9-0.1,1.4s0.1,0.9,0.1,1.4c0.1,1.3-0.1,2.7-0.1,4.2c0,1.4,0.1,2.8,0.1,4.2
		c0,0.6-0.2,1.3-0.2,2c0.1,1.4,0,2.8,0,4.1c0,0.7,0.2,1.3,0.2,1.9c0.1,1.5-0.3,3-0.2,4.5c0.1,0.6,0.3,1.2,0.3,1.9
		c0,1.4,0,2.8,0.1,4.1c0.1,0.7,0.3,1.4,0.3,2.1C47.2,74.4,47.1,75,47.1,75.6z"/>
	<path class="st0" d="M65.4,75.9c-1-0.3-2.1,0-3.3,0.1c-1.7,0.1-3.5,0.5-4.3-0.6c-0.7-0.9-0.7-2.9-0.8-4.5c0-0.6-0.2-1.1-0.3-1.5
		c0-0.4,0.1-1.1,0.2-1.5c0-0.6-0.1-1.3-0.1-2c0-4,0.6-7.9,0.8-11.8c0.1-1,0.1-1.9,0.2-2.9c0.1-0.9,0-1.7,0-2.7
		c0.1-2.5,0.2-5,0.2-7.5c0.1-2.6,0.2-5.1,0.4-7.7c0.2-3.8,0.1-7.4,0-11.1c0-1.7-0.1-3.3-0.1-5.1c0.1-1-0.1-2.2-0.1-3.5
		c0.1-2.5-0.2-4.8,2.1-4.9c0.8-0.1,1.6,0.1,2.3,0.1c0.8,0,1.5,0,2.3-0.1c1.5-0.1,3-0.3,4.3-0.3c0.9-0.1,1.7,0.2,1.7,1
		c0,1.3-1.2,0.9-2.1,1c-0.5,0-1.2,0.2-1.7,0.3c-0.9,0.2-1.9,0.5-3,0.5c-0.9-0.1-2.3-0.5-3-0.1c-0.8,0.6-0.4,2.7-0.4,3.9
		s-0.2,2.3-0.1,3.5c0.1,1.9,0.2,3.5,0.2,5.3c0.1,2.1,0.2,4.1,0.1,6.3c0,1.2-0.1,2.7-0.2,4.2c0,0.7,0,1.4-0.1,2.1
		c0,0.7-0.1,1.8,0,2.1c0.5,1,2.8,0.6,4,0.5c0.6-0.1,1.4-0.2,2-0.4c0.7-0.1,1.4-0.5,2-0.3c0.4,0.1,1,1,0.9,1.7
		c-0.2,0.7-1,0.8-1.9,0.9c-0.8,0.1-1.6,0.2-2.4,0.2c-0.8,0-1.4,0.1-2.4,0.2c-0.5,0.1-2,0.1-2.3,0.4c-0.5,0.4-0.2,2.1-0.3,3
		c0,1.2,0,2.1,0,3.1c0.2,2.2-0.2,4.6-0.3,6.4c0,0.6,0.1,1.3,0,2c0,0.7-0.2,1.3-0.2,1.9c0,0.6,0.1,0.9,0,1.2c0,0.9-0.2,1.3-0.3,2.2
		c0,0.8,0,1.7-0.1,2.7c-0.1,0.9,0,1.7,0,2.5c0,0.6-0.1,1.4-0.1,2c0,1.5,0.3,4.8,1.5,5.2c0.4,0.2,1.2,0,1.7,0c1.6,0,4.2,0,5.5,0.1
		c0.8,0.1,1.6-0.2,2.7-0.3c0.9-0.1,2.7-0.1,2.9,0.8c0.1,0.6-0.4,1.2-0.8,1.4c-0.5,0.1-1.1-0.2-1.7-0.2c-0.4,0-0.8,0.1-1.3,0.1
		c-0.5,0.1-1,0-1.5,0C67.3,75.8,66.4,76.1,65.4,75.9z"/>
	<path class="st0" d="M98.4,73.2c0.3,0.2,0.7,0.9,0.5,1.5c-0.3,1.3-2.1,0.8-3.6,0.9c-1.7,0.1-4,0.4-5.7,0.3c-0.6,0-1.2,0.1-1.7,0.1
		c-1.9-0.2-3.5-0.3-4.1-2.3c-0.7-2.1-0.6-4.1-0.7-6.3c0-0.4-0.2-0.9-0.2-1.2c0-0.6,0.2-1.2,0.2-1.9c0.1-2.3,0.1-4.5,0.1-6.9
		c0.1-5.8-0.1-12.1-0.3-17.9c-0.1-1.8-0.1-3.7,0-5.6c0.1-2.6,0.1-5.1,0.2-7.7c0.1-1.2,0.2-2.4,0.2-3.7c0-0.9-0.1-2.1-0.1-3.2
		c0-2.3,0-5.3,0.2-7.8c0.1-1.6-0.2-2.8,1.1-3c0.6-0.2,1.5,0.1,1.7,0.8c0.2,0.6-0.1,1.5-0.2,2.4c-0.2,1.5-0.2,3.2-0.1,4.5
		c0,1.3,0.2,2.8,0.2,4.3c0,1,0.2,1.9,0.2,2.8c0,1.7-0.4,3.3-0.4,5c0,0.8,0.1,1.6,0.1,2.4c0,0.9-0.1,1.9-0.2,2.8c-0.1,1-0.1,2-0.1,3
		c-0.1,1.9,0.1,3.7,0.2,5.7c0,1,0,2.1,0.1,3.2c0.1,2.2,0.1,4.4,0.1,6.4c0,1.1-0.2,2.1-0.3,3.1c-0.1,2.4-0.1,5.1,0,7.5
		c0,1.9,0,3.6,0.1,5.6c0.1,1.9,0.2,4.4,1.1,5c0.7,0.5,1.8,0.3,2.8,0.2c0.9,0,1.9,0,2.8,0c1,0,1.7-0.2,2.9-0.2
		C96.5,73,97.8,72.8,98.4,73.2z"/>
	<path class="st0" d="M124.7,73.2c0.3,0.2,0.7,0.9,0.5,1.5c-0.3,1.3-2.1,0.8-3.6,0.9c-1.7,0.1-4,0.4-5.7,0.3c-0.6,0-1.2,0.1-1.7,0.1
		c-1.9-0.2-3.5-0.3-4.1-2.3c-0.7-2.1-0.6-4.1-0.7-6.3c0-0.4-0.2-0.9-0.2-1.2c0-0.6,0.2-1.2,0.2-1.9c0.1-2.3,0.1-4.5,0.1-6.9
		c0.1-5.8-0.1-12.1-0.3-17.9c-0.1-1.8-0.1-3.7,0-5.6c0.1-2.6,0.1-5.1,0.2-7.7c0.1-1.2,0.2-2.4,0.2-3.7c0-0.9-0.1-2.1-0.1-3.2
		c0-2.3,0-5.3,0.2-7.8c0.1-1.6-0.2-2.8,1.1-3c0.6-0.2,1.5,0.1,1.7,0.8c0.2,0.6-0.1,1.5-0.2,2.4c-0.2,1.5-0.2,3.2-0.1,4.5
		c0,1.3,0.2,2.8,0.2,4.3c0,1,0.2,1.9,0.2,2.8c0,1.7-0.4,3.3-0.4,5c0,0.8,0.1,1.6,0.1,2.4c0,0.9-0.1,1.9-0.2,2.8c-0.1,1-0.1,2-0.1,3
		c-0.1,1.9,0.1,3.7,0.2,5.7c0,1,0,2.1,0.1,3.2c0.1,2.2,0.1,4.4,0.1,6.4c0,1.1-0.2,2.1-0.3,3.1c-0.1,2.4-0.1,5.1,0,7.5
		c0,1.9,0,3.6,0.1,5.6c0.1,1.9,0.2,4.4,1.1,5c0.7,0.5,1.8,0.3,2.8,0.2c0.9,0,1.9,0,2.8,0c1,0,1.7-0.2,2.9-0.2
		C122.8,73,124.1,72.8,124.7,73.2z"/>
	<path class="st0" d="M153.1,36.8c0.1,2.6,0.5,5.1,0.4,7.7c-0.1,0.6-0.3,1.1-0.4,1.8c0,0.9,0.1,1.6-0.1,2.4c-0.3,2.3-0.4,4.5-0.5,7
		c0,0.9-0.3,1.7-0.4,2.6c0,0.9-0.1,1.9-0.1,2.8c-0.1,1.9-0.2,3.6-0.6,5.2c-0.1,0.8-0.5,1.5-0.8,2.2c-0.8,2-1.8,4.4-3.3,5.6
		c-0.5,0.5-1.9,1.4-2.8,1.7c-2,0.5-4.4,0-5.8-0.7c-0.7-0.3-1.4-0.8-1.8-1.4c-0.4-0.7-0.7-2-0.8-2.9c-0.2-1.1-0.5-2.2-0.6-3.2
		c0-0.7,0.1-1.4,0.1-2.2c0.1-1.4-0.2-2.9-0.1-4.4c0-0.9,0.2-1.7,0.3-2.5c0-1-0.2-2.1-0.2-3.1s0.2-2,0.2-2.9c0-1-0.2-2-0.1-3
		c0.1-1,0.2-1.9,0.1-2.9c0-1,0-2.1,0-3.1c0.1-0.9,0.3-1.8,0.3-2.8c0-2,0-4,0-6c0.1-4.2-0.4-8.2,0.2-11.9c0.4-2.8,0.5-5.6,1.2-8
		c0.5-1.5,0.7-2.7,1.6-3.8c0.8-0.9,2.3-1.9,3.5-2.1c0.4,0,1.1,0,1.8,0.1c0.6,0,1.2-0.2,1.7-0.2c1.7,0.2,3.7,1.5,4.3,2.9
		c0.2,0.4,0.7,1.4,0.8,2.1c0.1,0.6,0.2,1.2,0.3,1.8c0.1,0.5,0.3,1,0.3,1.4c0.2,1.7,0.2,3.7,0.4,5.3c0.1,0.6,0.3,1.1,0.3,1.6
		c0.1,0.5,0,1,0,1.5c0.1,0.8,0.3,1.6,0.3,2.3c0.1,0.5,0,1,0,1.6c0.1,1.3,0.3,2.5,0.4,3.8C153.2,34.3,153.1,35.6,153.1,36.8z
		 M150.5,36.4c0-0.6,0.1-1.2,0.1-1.8c0-0.8-0.2-1.5-0.2-2.3c-0.1-0.8-0.3-1.5-0.4-2.3c-0.1-1,0-2-0.1-3c-0.1-1-0.3-1.9-0.4-2.8
		c0-0.8,0.1-1.7,0-2.5c0-0.7-0.2-1.4-0.3-2.2c-0.1-1.3-0.1-2.8-0.4-4c-0.1-0.5-0.5-0.9-0.6-1.5c-0.2-0.7-0.3-1.3-0.6-1.7
		c-0.6-0.9-2.4-1.2-3.8-1.1c-0.3,0.1-0.4,0.1-0.8,0.2c-1.8,0.8-3.1,3.1-3.4,5.4c-0.1,1.2-0.2,2.4-0.3,3.6c-0.2,1.2-0.3,2.3-0.4,3.6
		c-0.1,2.5,0,5.1,0,7.7c0,2-0.5,4.1-0.2,6.3c0.3,2.1-0.3,4.2-0.3,6.1c0,1.3,0.2,2.4,0.1,3.6c-0.1,2.6-0.1,4.9,0,7.4
		c0.1,1.2-0.2,2.3-0.2,3.5c-0.1,2.4-0.1,4.9,0.1,7.5c0.1,2.1,0.4,5.4,1.4,6.5s3.4,0.9,4.8,0.2c1.8-0.9,2.4-2.7,3.2-4.4
		c0.3-0.6,0.4-1.2,0.7-1.9c0.5-1.2,1-2.4,1.3-3.8c0.3-1.9,0.2-3.7,0.2-5.9c0.1-0.9,0.2-1.8,0.3-2.8c0.2-3,0.5-5.8,0.6-8.8
		C151,42.2,150.5,39.3,150.5,36.4z"/>
	<path class="st0" d="M162.6,11.6c0-1.2-0.1-2.8,1.3-2.9c0.7,0,1.4,0.5,1.4,1.9c-0.1,2.2-0.1,4,0,6.3c0.1,1,0.2,2.1,0.3,2.9
		c0,0.7-0.1,1.3-0.1,2.1c0,0.9,0.3,1.9,0.4,2.9c0,1,0.1,2.1,0,3.2c-0.1,2.1,0.2,4.1,0.1,6.2c-0.2,3.2,0.2,6.4,0.1,9.4
		c-0.1,1.1,0.2,2,0.2,3c0,1.6-0.1,3.3-0.1,4.9c0,1.6,0.1,3.2,0.1,4.8s-0.1,3.1,0,4.7c0.1,2.4-0.1,4.6,0.4,6.6c0.4,1.9,0.8,3,1.8,4.4
		c0.7,1,1.2,2,2.8,1.9c1.6-0.2,3.3-2.3,3.9-3.7c0.3-0.7,0.5-1.7,0.7-2.6c0.6-2.7,1-5.9,1.2-9c0.1-2.1,0.1-4.4-0.1-6.6
		c-0.2-2.1-0.1-4.3,0-6.5c0.2-4.6,0.2-8.8,0.5-13c0.2-3.2-0.3-6.4-0.3-9.7c0-1.1-0.1-2.1-0.2-3.2c-0.1-1.6,0.1-3.1-0.1-4.8
		c0-0.4-0.2-0.8-0.3-1.3c-0.1-0.4,0-0.9,0-1.4c0-1.8-0.5-3.2,1.3-3.5c2.3-0.3,1.6,2.2,1.7,4.5c0,0.6,0.2,1.2,0.2,1.7
		c0,0.6-0.2,1.2-0.2,1.8c0.1,1.1,0.4,2.2,0.4,3.4c0,1.3-0.3,2.5-0.1,3.6c0,0.7,0.3,1.4,0.3,2.1c0.4,3.1,0,6.7-0.3,10.1
		c-0.2,3.4-0.2,6.8-0.2,10.2c0,2.7,0.1,5.1,0.1,7.7c0,0.8-0.1,1.6-0.1,2.5c0.1,1.6-0.2,3.2-0.3,4.8c0,0.8-0.2,1.6-0.3,2.3
		c-0.1,0.8-0.2,1.7-0.3,2.4c-0.2,0.8-0.5,1.8-0.7,2.8c-0.4,2.2-1.1,3.2-2.3,4.7c-1.5,1.8-3.8,3.6-7,2.7c-1-0.3-2.6-2.4-3.2-3.5
		c-0.4-0.5-0.7-1-0.9-1.6c-0.4-1-0.4-2.3-0.6-3.5c-0.6-3.7-0.4-7.9-0.4-12c0-5.5-0.2-10.7-0.3-16c0-5,0-10.7-0.3-15.8
		c-0.1-1.3-0.1-2.8-0.2-4.1C162.8,16.6,162.7,14.9,162.6,11.6z"/>
	<path class="st0" d="M194.5,75.4c-1.1-0.7-2.3-1.5-2.8-2.8c-0.4-1.2-0.4-2.8-0.7-4.3c-0.4-2.2-0.2-5.1-0.4-7.6
		c-0.1-1-0.2-2-0.1-2.9c0.1-1,0.1-2,0-3c0-1,0.1-2,0.1-3s-0.1-2-0.2-3c0-1,0.1-2,0.2-3c0.1-2.9,0.1-6,0.3-8.9c0.1-2,0-4,0.1-6
		c0.2-3,0.2-5.9,0.6-8.7c0.1-1,0.1-1.9,0.2-2.9c0.2-0.8,0.4-1.8,0.6-2.8c0.2-0.9,0.3-1.9,0.6-2.7c0.1-0.5,0.2-0.9,0.4-1.3
		c0.3-1.1,1.1-2.5,1.9-3.2c0.6-0.5,1.3-0.7,2-0.7c0.7-0.1,1.4,0,2.1,0.1c0.6,0.1,1.1,0.4,1.6,0.6c1.2,0.5,2.1,0.9,2.8,1.9
		c0.2,0.3,0.3,0.7,0.5,1.1c0.3,0.4,0.5,0.8,0.7,1.1c0.1,0.4,0.1,1,0.2,1.5s0.3,0.9,0.4,1.3c0.1,0.8,0.1,1.7,0.1,2.5
		s-0.1,1.6-0.1,2.3c0,0.5,0.1,1.1-0.1,1.6c-0.1,0.5-0.4,0.9-0.9,0.9s-1.1-0.5-1.2-0.9c-0.2-0.4,0-0.9,0-1.4c0-1.5-0.2-3.1-0.2-4.7
		c-0.1-0.6-0.2-1.4-0.4-2c-0.1-0.3-0.3-0.6-0.4-0.8c-0.1-0.5-0.2-0.9-0.4-1.3c-0.5-0.6-1.2-1.1-2.1-1.4c-0.8-0.2-2.1-0.4-3-0.1
		c-1,0.4-1.6,2.4-1.9,3.6c-0.8,2.9-1,6.1-1.4,9.3c-0.1,0.8,0,1.7-0.1,2.5c0,0.9-0.2,1.8-0.2,2.6c0,2.1,0,4,0,6.1
		c0,2-0.3,4.2-0.3,6.4c0,1.2,0,2.2-0.1,3.3c0,0.6,0,1.1-0.1,1.6c0,0.6-0.1,1.1-0.1,1.6c0.1,0.4,0.2,0.9,0.2,1.2
		c0.2,1.1-0.1,2.6-0.1,3.8c0,1.8,0.2,3.6,0.2,5.4c0,0.8-0.1,1.7-0.1,2.6c0,0.9,0.2,1.8,0.2,2.7c0.1,0.8,0,1.4,0.1,2.2
		c0.3,2.1,0.2,4.6,1,6.2c0.3,0.5,0.9,1.2,1.5,1.5c0.6,0.2,1.7,0.4,2.5,0.2c0.5-0.1,1-0.5,1.5-0.8c0.8-0.5,1.3-1,1.8-1.9
		c0.1-0.3,0.4-0.5,0.5-0.8c0.4-0.5,0.6-1.2,0.8-1.8c0.1-0.6,0.4-1.2,0.6-1.9c0.2-0.7,0.3-1.4,0.4-2.1c0.1-0.6,0.3-1.3,0.4-2
		c0.3-3.4,0.4-7.4,0.5-11.2c0-1.3,0.2-3.3-0.3-4.4c-0.2-0.5-0.7-1.1-1.2-1.2c-0.7-0.2-1.4-0.1-2.2-0.1c-1.1,0.1-3,0.5-3.3-0.7
		c-0.1-0.9,0.7-1.7,1.3-1.8c0.9-0.1,1.8,0.5,3,0.4c2.2-0.1,3.6,0.2,4.5,1.5c0.7,1.1,1.1,2.4,0.8,4c-0.2,1.5-0.2,3.3-0.2,4.9
		c0,2.2-0.2,4.3-0.2,6.5c-0.1,0.8-0.2,1.7-0.4,2.6c-0.3,1.8-0.5,3.4-1,5c-0.8,2.2-1.8,4.2-3.2,5.8c-0.5,0.5-1.2,0.9-1.8,1.3
		s-1.5,0.8-2.2,0.9C196.8,76.2,195.4,75.9,194.5,75.4z"/>
	<path class="st0" d="M231.2,66.2c0.1,0.9,0.1,1.8,0.1,2.6c0,0.9,0,1.8,0.1,2.6c0.1,0.6,0.4,0.9,0.4,1.4c0,0.3-0.1,0.7-0.1,1.1
		c0,0.7,0.1,1.4-0.1,1.7c-0.3,0.6-1.6,0.9-2.1,0.1c-0.3-0.4-0.4-1.8-0.3-2.6c0-1.2,0.1-2.4,0-3.6c-0.1-1.2-0.2-2.4-0.2-3.4
		c0-0.8,0-1.6,0-2.4c-0.1-2.1-0.4-4.4-0.4-6.7c0-1.4,0-2.9-0.1-4.6c0-1.4,0.2-3.8-0.2-4.6c-0.5-1-2.2-0.9-3.7-0.8
		c-0.9,0-1.8,0.1-2,0.4c-0.4,0.4-0.3,1.8-0.3,3.1c-0.1,0.8-0.2,1.7-0.3,2.6c-0.2,1.7-0.4,3.5-0.6,5.3c0,0.8-0.2,1.7-0.3,2.5
		c-0.1,0.4,0,0.9,0,1.2c-0.1,0.7-0.3,1.3-0.4,1.9c-0.1,0.8-0.1,1.6-0.1,2.4c-0.1,0.6-0.2,1.3-0.3,1.9c-0.1,0.9,0,1.8-0.2,2.5
		c-0.1,1.1-0.6,2-0.7,2.9c-0.1,0.7,0,1.3-0.2,1.7c-0.4,0.8-1.7,1.1-2.1,0c-0.2-0.5,0-1.5,0.2-2.3c0.5-1.6,0.7-2.8,0.9-4.6
		c0.1-0.8,0.1-1.7,0.1-2.5c0.1-0.7,0.3-1.5,0.4-2.3c0-0.8,0-1.7,0.1-2.5c0.1-1.6,0.5-3.2,0.7-4.6c0.1-1.2,0.1-2.4,0.2-3.7
		c0-1.1,0.3-2.3,0.4-3.4c0.2-2.5,0.1-4.9,0.4-7.4c0.2-2.4,0.4-4.8,0.5-7.2c0.1-1.9,0.2-3.7,0.3-5.5c0-0.6,0.1-1.2,0.2-1.7
		c0-1,0-2,0.1-3c0.1-2,0.5-4,0.6-6c0-1,0.3-2,0.4-2.9c0.2-1.2,0.2-2.4,0.3-3.8c0.1-1.5,0.1-3.9,1.4-3.9h0.1c1.2,0,1.5,0.7,1.9,1.6
		c0.9,1.9,1.3,3.9,1.6,6.3c0.3,3.1,1.1,5.9,1.2,9.2c0.1,0.8,0.3,1.5,0.4,2.3c0.4,2.2,0.4,4.7,0.6,7.2c0.1,0.8,0,1.7,0.1,2.5
		c0.2,1.7,0.3,3.2,0.2,5c0,0.8-0.1,1.7,0,2.5c0.1,0.5,0.4,0.8,0.4,1.3s-0.2,0.9-0.2,1.4c-0.1,1.2,0,2.4,0,3.6c0,0.7-0.1,1.3-0.1,1.9
		c0.1,0.5,0.2,1,0.2,1.6c0.1,1.4,0,2.8,0,4.1c0.1,1.7,0.3,3.3,0.4,4.9C231.2,64.4,231.1,65.4,231.2,66.2z M228.1,41.2
		c0-1.2,0-2.4,0-3.2c-0.1-2.2-0.3-4.2-0.4-6.3c0-0.9-0.2-1.9-0.3-2.9s-0.3-2-0.4-2.9c-0.1-1-0.2-2-0.3-3c-0.1-1-0.4-1.9-0.5-2.8
		c-0.2-1.8,0-3.6-0.8-4.8c-0.1,0-0.1,0-0.1,0c-0.4,0.3-0.6,1.2-0.8,2c-0.2,1.6-0.2,3-0.4,4.5c-0.1,0.7-0.3,1.4-0.3,2.1
		c-0.1,0.9,0,1.8-0.1,2.7c-0.1,0.9-0.2,1.8-0.3,2.7c-0.2,2.8,0.1,5.4-0.3,7.9c-0.2,1.6-0.3,3.1-0.4,4.9c0,0.9-0.2,2.1,0,2.4
		c0.4,0.7,1.7,0.5,2.7,0.4c1.2-0.1,2.2,0.1,2.6-0.6C228.4,43.6,228.1,42.2,228.1,41.2z"/>
	<path class="st0" d="M261,36.7c0.1,1.7,0,3.3-0.1,5c0,0.9-0.1,1.7-0.1,2.6c0,0.8-0.1,1.5-0.1,2.3c0,0.5,0.1,0.9,0.2,1.3
		c0.1,2,0,4.1,0.1,6.1c0,1-0.1,2.3-0.1,3.3s-0.1,2-0.1,3c0,0.5,0.1,0.9,0.2,1.4c0.1,2.8-0.3,5.7-0.3,8.6c0,0.5,0.1,1.1,0.1,1.7
		c-0.1,2.2-1.4,4.5-3.6,4.3c-1.6-0.1-1.9-2.4-2-4.4c-0.1-1.8-0.5-3.7-0.6-5.3c0-0.7,0-1.4-0.1-2c0-0.6-0.2-1.1-0.3-1.7
		c-0.2-1.3-0.1-2.5-0.2-3.8c-0.3-2.4-0.7-4.8-0.8-7.3c-0.1-2.4-0.6-4.8-0.8-7.3c-0.2-2.3-0.7-4.7-1-7c-0.2-1.1-0.4-2.3-0.6-3.5
		c-0.2-1.1-0.3-2.3-0.5-3.5c-0.3-2.3-1.2-4.4-1.6-6.5c-0.2-1.1-0.6-2.1-0.9-3.1c-0.3-1-0.5-2.1-0.8-3.2c-0.2-1.1-0.6-1.9-0.9-3.1
		c-0.3-0.9-0.9-2.8-1.3-2.8c-0.6,0.1-0.5,1.8-0.4,2.8c0,1-0.1,2.2,0.1,3.1c0,0.9,0.4,1.7,0.5,2.6c0.1,1.8,0.1,3.6,0.2,5.4
		c0.1,1,0.1,2,0.2,3.1c0.2,2,0,4.1-0.1,6.1c0,1.9-0.1,4,0,6c0,2-0.3,4-0.1,5.8c0.2,1.9,0.2,3.9,0.3,5.8c0.2,2,0.2,3.9,0.1,5.8
		c-0.1,1.2-0.2,2.4-0.1,3.6c0.1,3,0.1,6.1,0.2,9.2c0,1.1,0.4,4.1-1.1,4.5c-0.8,0.2-1.6-0.7-1.7-1.1c-0.3-0.9,0.2-2.5,0.2-3.7
		c0.1-3.1-0.1-5.5,0-8.5c0.1-1.1-0.1-2.3,0-3.5c0.1-1.1,0.1-2.3,0.1-3.4c-0.1-1.1-0.3-2.1-0.3-3.2c-0.1-5.6-0.4-11.7-0.1-17.4
		c0-1-0.1-1.9,0-2.9c0.1-1-0.1-1.8-0.1-2.7c-0.1-3-0.2-5.9-0.4-8.8c-0.2-3-1.1-6.5-0.5-9.4c0.2-1.2,0.3-2.2,1.1-2.6
		c1.5-0.7,3.3,0.4,3.9,1.3c0.5,0.6,0.7,1.7,1.1,2.6c0.4,0.8,0.6,1.8,0.9,2.7c0.3,1,0.5,2,0.8,2.9c0.3,1.1,0.3,2.3,0.6,3.3
		c0.3,1,0.7,1.9,1,3c0.5,2.1,1,4,1.4,6.4c0.2,1.1,0.2,2.3,0.5,3.4c0.2,1.1,0.6,2.1,0.8,3.2c0.5,2.1,0.7,4.5,1,6.8
		c0.1,1.2,0.3,2.3,0.4,3.5c0.2,2.3,0.1,4.7,0.7,7.1c0.4,1.7,0.3,3.5,0.5,5.3c0,0.6,0.2,1.1,0.3,1.7c0.1,0.9,0,1.8,0.2,2.8
		c0,0.4,0.2,0.8,0.3,1.2s0.1,0.9,0.2,1.3c0,0.3,0.1,0.5,0.2,0.8c0,0.1,0.1,0.4,0.2,0.4s0.2-0.3,0.2-0.4c0.1-1.2,0.2-2.4,0.2-3.6
		c0.1-0.4,0-0.9-0.1-1.4c0-0.4,0-0.9,0-1.4c0-3.1,0.3-6.3,0.2-9.5c-0.1-3-0.1-6.3,0.1-9.4c0.1-3.1,0.3-6.3,0-9.5
		c-0.1-1.6-0.2-3.1-0.2-4.7c0.1-2.5,0.2-5-0.1-7.5c-0.3-3.1-0.2-6.1-0.4-9.1c-0.1-0.9-0.7-1.8-0.5-2.7c0.3-1.2,2.1-1.3,2.7-0.4
		c0.9,1.3,0.3,3.8,0.4,5.3c0.2,2.1,0.1,4.3,0.2,6.5c0.1,2.9,0.3,5.8,0.5,8.7C261.2,31.5,260.9,34.1,261,36.7z"/>
	<path class="st0" d="M274.2,76.1c-1.1,0-2.4-0.2-2.7-0.7c-0.3-0.3-0.3-0.9-0.3-1.5c0-0.2,0-0.5,0-0.8c0-0.4-0.1-0.6-0.2-0.9
		c0-0.2,0-0.4-0.1-0.6c0-0.1,0-0.3,0.1-0.5c0-0.2,0-0.4,0-0.5c0-0.2,0-0.4-0.1-0.6c0-0.2,0-0.4,0-0.6c0-0.3,0-0.5,0.1-0.8
		c0-0.2,0.1-0.4,0.1-0.6c0-0.3-0.1-0.6-0.2-0.9c0-0.2,0-0.5-0.1-0.7c0-0.5,0-1-0.1-1.5c0-0.3,0-0.7,0-1.1s-0.2-1-0.2-1.4
		c0-0.5,0-0.9,0-1.4c0.1-1.6,0.2-3.4,0.2-5.3c0-0.2,0-0.4,0-0.6c-0.2-1.2-0.2-2.5-0.3-3.8c0-0.9,0.4-1.8,0.5-2.8
		c0-0.4,0-0.8-0.1-1.2c0-0.3,0-0.6,0-0.9s0.1-0.7,0.1-1.1c0-0.6,0.1-1.2,0-1.8c0-0.6,0-1.2,0-1.8c0.1-0.3,0.1-0.7,0.1-1
		c0-0.5,0-0.9,0-1.4c0.1-0.5,0.1-1,0.1-1.5c0-0.5,0-0.9,0.1-1.4c0-0.5,0-1,0-1.5c0-0.7,0-1.4-0.1-2c-0.1-0.6-0.1-1.2-0.1-1.7V31
		c0-1.2,0-2.4-0.1-3.6c0-0.2,0-0.4,0-0.6c-0.1-0.2-0.1-0.4-0.1-0.6c-0.1-0.7-0.1-1.6-0.1-2.3v-0.3c0-0.7,0-1.4-0.1-2.1
		c0-1.3,0-2.7,0-4c-0.1-1.9-0.1-3.8-0.1-5.9c0-0.4-0.1-0.7-0.1-1c-0.1-0.5-0.1-0.9-0.1-1.3c0.2-0.5,0.7-0.9,1.3-1.1
		c0.1,0,0.1,0,0.2,0c0.2,0,0.4,0.1,0.6,0.2c0.2,0,0.3,0.1,0.5,0.1c0.5,0.1,1,0.2,1.4,0.3c0.8,0.2,1.6,0.4,2.3,0.7
		c0.4,0.2,0.9,0.5,1.4,0.8v0.1c0.2,0.1,0.5,0.3,0.7,0.4c0.3,0.2,0.7,0.3,0.9,0.6c0.2,0.2,0.4,0.4,0.6,0.7c0.2,0.3,0.4,0.6,0.6,0.8
		c0.5,0.6,1,1.1,1.3,1.5c0.3,0.6,0.6,1.3,0.8,2c0.1,0.2,0.2,0.4,0.3,0.6c0.2,0.5,0.4,1,0.7,1.4c0.2,0.4,0.4,0.8,0.5,1.1
		c0.2,0.5,0.4,0.9,0.5,1.4c0.1,0.5,0.3,1,0.5,1.5c0.3,0.6,0.4,1.3,0.6,2c0.1,0.3,0.1,0.6,0.2,0.9c0.1,0.3,0.2,0.7,0.3,1
		c0.5,1.6,1,3.3,1.2,5.1c0.1,0.5,0.2,1.1,0.3,1.6c0.1,0.6,0.2,1.1,0.3,1.7c0.1,0.7,0.1,1.3,0.2,2c0,0.5,0.1,1,0.1,1.4
		c0,0.4,0.1,0.7,0.1,1c0.1,0.5,0.2,1,0.2,1.5s0,1,0,1.5c0,0.3,0,0.7,0,1c0,0.8,0.1,1.5,0.1,2.2c0,0.9,0.1,1.8,0.1,2.7
		c0,0.4-0.1,0.8-0.1,1.2c-0.1,0.3-0.1,0.5-0.1,0.8c-0.1,0.4,0,0.9,0,1.3c0,0.3,0,0.6,0,0.9c0,1.2-0.2,2.4-0.3,3.6
		c-0.1,0.9-0.3,1.7-0.3,2.6c0,0.3-0.1,0.6-0.2,1c0,0.1,0,0.3-0.1,0.5c0,0.3,0,0.6,0,1c0,0.2,0,0.4,0,0.6c-0.1,0.6-0.2,1.2-0.4,1.7
		c-0.1,0.4-0.2,0.7-0.3,1.1c0,0.3-0.1,0.6-0.1,0.9c0,0.2,0,0.4,0,0.7c-0.1,0.2-0.2,0.4-0.2,0.6c-0.1,0.2-0.2,0.3-0.2,0.5
		c-0.1,0.2-0.1,0.5-0.2,0.7c0,0.2,0,0.4-0.1,0.6c-0.5,1.7-1.7,3.7-3,4.8c-0.2,0.2-0.4,0.3-0.6,0.4c-0.2,0.1-0.4,0.2-0.5,0.3
		c-0.2,0.1-0.3,0.3-0.4,0.3c-0.3,0.3-0.5,0.5-1,0.6c-0.2,0.1-0.4,0.2-0.7,0.3c-0.3,0-0.5,0.1-0.8,0.2c-0.2,0.1-0.3,0.1-0.5,0.2
		c-0.4,0.2-0.8,0.3-1.2,0.4c-0.1,0-0.3,0-0.5,0c-0.1,0-0.2,0-0.3,0c-0.1,0-0.3,0-0.4,0s-0.3,0-0.4,0c-0.3,0-0.5,0.1-0.8,0.1
		c-0.3,0.1-0.6,0.2-0.9,0.2C274.4,76.1,274.3,76.1,274.2,76.1z M273.8,72.4c0.1,0.5,0.1,1,0.5,1.2c0.1,0.1,0.3,0.2,0.6,0.2
		c0.3,0,0.6-0.1,0.9-0.1c0.1-0.1,0.2-0.1,0.3-0.1c1.4-0.2,2.3-0.4,3.4-0.8c0.2-0.1,0.4-0.2,0.5-0.2c0.6-0.2,1.1-0.4,1.5-0.8
		c1.8-1.5,2.5-4.1,3.2-7c0.4-1.8,0.7-3.6,0.9-5.5l0.1-0.8c0-0.3,0.1-0.7,0.1-1c0.1-0.4,0.2-0.8,0.2-1.2c0-0.3,0.1-0.6,0.1-0.9
		c0-0.3,0-0.6,0-0.9c0.2-1.8,0.2-3.6,0.3-5.7c0-0.4,0-0.8,0-1.3c0-0.8,0-1.7,0-2.5c0-0.5,0-0.9,0.1-1.4c0-0.8,0-1.7-0.1-2.5
		c-0.1-1.3-0.2-2.6-0.4-3.8c0-0.3-0.1-0.6-0.1-0.9l-0.1-0.6c-0.2-1.5-0.4-2.8-0.6-4.2c-0.3-2-1-4.1-1.6-6l-0.1-0.1
		c-0.2-0.7-0.4-1.5-0.7-2.2c-0.2-0.8-0.4-1.5-0.7-2.3c0-0.2-0.2-0.5-0.3-0.7c-0.1-0.2-0.2-0.4-0.3-0.6c-0.2-0.5-0.4-1-0.5-1.5
		c-0.3-0.7-0.5-1.4-0.8-2c-0.2-0.3-0.4-0.6-0.7-1c-0.1-0.1-0.2-0.2-0.2-0.4c-0.8-1-1.5-1.8-2.8-2.5c-0.3-0.1-0.5-0.3-0.8-0.4
		c-0.3-0.3-0.6-0.5-0.9-0.6c-0.4-0.2-1.1-0.3-1.4-0.3c-0.2,0-0.3,0-0.4,0c-0.4,0.2-0.5,0.9-0.5,1.5c0,0.7,0,1.4,0.1,2
		c0,0.4,0.1,0.8,0.1,1.2c0,0.4,0.1,0.8,0.1,1.2c0.1,0.7,0.1,1.3,0.1,2c0.1,1.1,0.1,2.2,0.2,3.3c0.1,0.7,0.1,1.4,0.1,2.1
		c0,0.3,0.1,0.7,0.1,1c0,0.4,0,0.7,0,1c0.1,0.6,0.1,1.1,0.1,1.7c0,1.2-0.1,2.4,0,3.6c0.1,1.4,0.2,2.9,0.2,4.3c0,0.5-0.1,1.1-0.1,1.6
		c-0.1,0.4-0.1,0.9-0.1,1.4c-0.1,0.6,0,1.2,0,1.8c0,0.5,0.1,1,0.1,1.4s-0.1,0.7-0.1,1.1c0,0.2-0.1,0.4-0.1,0.7c0,0.4,0,0.8,0,1.2
		c0,0.3,0,0.5,0,0.8c0,0.2,0,0.5,0,0.7c-0.1,0.3-0.1,0.5-0.1,0.8c0,0.5,0,1.1,0,1.6c0.1,0.6,0.1,1.1,0.1,1.7
		c-0.1,0.2-0.1,0.5-0.1,0.7c-0.1,0.3-0.1,0.5-0.1,0.8c-0.1,1.1-0.2,2.3,0,3.4c0.2,1.1,0.3,2.3,0.2,3.5c-0.2,1.4,0,2.8,0.1,4.3
		c0.1,1.4-0.1,2.8,0.1,4.2c0.2,1.5,0,3.1,0.2,4.5C273.8,72.2,273.8,72.3,273.8,72.4z"/>
	<path class="st0" d="M313.3,66.2c0.1,0.9,0.1,1.8,0.1,2.6c0,0.9,0,1.8,0.1,2.6c0.1,0.6,0.4,0.9,0.4,1.4c0,0.3-0.1,0.7-0.1,1.1
		c0,0.7,0.1,1.4-0.1,1.7c-0.3,0.6-1.6,0.9-2.1,0.1c-0.3-0.4-0.4-1.8-0.3-2.6c0-1.2,0.1-2.4,0-3.6c-0.1-1.2-0.2-2.4-0.2-3.4
		c0-0.8,0-1.6,0-2.4c-0.1-2.1-0.4-4.4-0.4-6.7c0-1.4,0-2.9-0.1-4.6c0-1.4,0.2-3.8-0.2-4.6c-0.5-1-2.2-0.9-3.7-0.8
		c-0.9,0-1.8,0.1-2,0.4c-0.4,0.4-0.3,1.8-0.3,3.1c-0.1,0.8-0.2,1.7-0.3,2.6c-0.2,1.7-0.4,3.5-0.6,5.3c0,0.8-0.2,1.7-0.3,2.5
		c-0.1,0.4,0,0.9,0,1.2c-0.1,0.7-0.3,1.3-0.4,1.9c-0.1,0.8-0.1,1.6-0.1,2.4c-0.1,0.6-0.2,1.3-0.3,1.9c-0.1,0.9,0,1.8-0.2,2.5
		c-0.1,1.1-0.6,2-0.7,2.9c-0.1,0.7,0,1.3-0.2,1.7c-0.4,0.8-1.7,1.1-2.1,0c-0.2-0.5,0-1.5,0.2-2.3c0.5-1.6,0.7-2.8,0.9-4.6
		c0.1-0.8,0.1-1.7,0.1-2.5c0.1-0.7,0.3-1.5,0.4-2.3c0-0.8,0-1.7,0.1-2.5c0.1-1.6,0.5-3.2,0.7-4.6c0.1-1.2,0.1-2.4,0.2-3.7
		c0-1.1,0.3-2.3,0.4-3.4c0.2-2.5,0.1-4.9,0.4-7.4c0.2-2.4,0.4-4.8,0.5-7.2c0.1-1.9,0.2-3.7,0.3-5.5c0-0.6,0.1-1.2,0.2-1.7
		c0-1,0-2,0.1-3c0.1-2,0.5-4,0.6-6c0-1,0.3-2,0.4-2.9c0.2-1.2,0.2-2.4,0.3-3.8c0.1-1.5,0.1-3.9,1.4-3.9h0.1c1.2,0,1.5,0.7,1.9,1.6
		c0.9,1.9,1.3,3.9,1.6,6.3c0.3,3.1,1.1,5.9,1.2,9.2c0.1,0.8,0.3,1.5,0.4,2.3c0.4,2.2,0.4,4.7,0.6,7.2c0.1,0.8,0,1.7,0.1,2.5
		c0.2,1.7,0.3,3.2,0.2,5c0,0.8-0.1,1.7,0,2.5c0.1,0.5,0.4,0.8,0.4,1.3s-0.2,0.9-0.2,1.4c-0.1,1.2,0,2.4,0,3.6c0,0.7-0.1,1.3-0.1,1.9
		c0.1,0.5,0.2,1,0.2,1.6c0.1,1.4,0,2.8,0,4.1c0.1,1.7,0.3,3.3,0.4,4.9C313.3,64.4,313.2,65.4,313.3,66.2z M310.2,41.2
		c0-1.2,0-2.4,0-3.2c-0.1-2.2-0.3-4.2-0.4-6.3c0-0.9-0.2-1.9-0.3-2.9c-0.1-1-0.3-2-0.4-2.9c-0.1-1-0.2-2-0.3-3s-0.4-1.9-0.5-2.8
		c-0.2-1.8,0-3.6-0.8-4.8c-0.1,0-0.1,0-0.1,0c-0.4,0.3-0.6,1.2-0.8,2c-0.2,1.6-0.2,3-0.4,4.5c-0.1,0.7-0.3,1.4-0.3,2.1
		c-0.1,0.9,0,1.8-0.1,2.7s-0.2,1.8-0.3,2.7c-0.2,2.8,0.1,5.4-0.3,7.9c-0.2,1.6-0.3,3.1-0.4,4.9c0,0.9-0.2,2.1,0,2.4
		c0.4,0.7,1.7,0.5,2.7,0.4c1.2-0.1,2.2,0.1,2.6-0.6C310.5,43.6,310.2,42.2,310.2,41.2z"/>
</g>
</svg>
