<?xml version="1.0" encoding="utf-8"?>
<!-- Generator: Adobe Illustrator 19.2.0, SVG Export Plug-In . SVG Version: 6.00 Build 0)  -->
<svg version="1.1" id="Layer_1" xmlns="http://www.w3.org/2000/svg" xmlns:xlink="http://www.w3.org/1999/xlink" x="0px" y="0px"
	 viewBox="0 0 232.8 84.4" style="enable-background:new 0 0 232.8 84.4;" xml:space="preserve">
<style type="text/css">
	.st0{fill:#FFFFFF;}
</style>
<g>
	<path class="st0" d="M26.2,79.9c0,0.6,0.1,1.4,0,2c-0.4,0.8-1.6,1.4-2.3,0.7c-0.5-0.5-0.6-1.4-0.7-2.3c0-0.6,0.1-1.1,0.1-1.6
		c0-0.4-0.1-0.8-0.2-1.2c-0.2-1.6-0.2-3.1-0.5-4.6C22.3,72,22,71,21.7,70c-0.8-2.5-1.7-4.8-2.5-7.3c-0.1-0.5-0.5-1-0.6-1.3
		c-0.2-0.7-0.2-1.3-0.5-1.9c-0.4-0.7-1-1.4-1.3-2.2c-0.5-0.8-0.7-1.7-1.2-2.4c-0.4-0.7-0.8-1.4-1.3-2.2c-0.5-0.7-0.8-1.6-1.3-2.3
		c-0.5-0.7-1-1.3-1.6-1.9c-0.6-0.6-1-1.3-1.6-1.9c-0.6-0.6-1.1-1.2-1.9-1.7c-0.7-0.5-2-1-2.8-0.5c-0.4,0.2-0.4,1.4-0.2,2.3
		c0,2.4,0.2,4.9,0.1,7.3c-0.1,0.8,0,1.7,0,2.4c0.1,2.5,0,4.9,0.1,7.4c0,0.6,0.1,1.1,0.1,1.8c0,1.2,0,2.5-0.2,3.7
		c-0.1,1.3,0.1,2.5,0.1,3.7c0,0.7,0,1.3,0,2c0.1,1.6,0.1,3.2,0.2,4.9c0,1.7,0,3.4-1.4,3.4c-0.6,0.1-1.6-0.5-1.7-1
		c-0.1-0.5,0-1.7,0-2.6s0-1.9-0.1-2.6c0-0.4,0.1-0.8,0.1-1.2c0-0.4-0.1-0.7-0.1-1.1c0-0.6,0.2-1.2,0.2-1.8c0.1-1.9,0.2-3.8,0.2-5.9
		c0.1-2.5-0.1-5.2,0-7.7c0.1-1.3,0-2.5-0.1-3.8c0-1.2,0-2.5,0-3.8c-0.2-7.4-0.4-15.5-0.2-23.3c0.1-2.6,0.1-5.3,0.2-7.9
		c0.1-1.3,0.2-2.5,0.2-3.8c-0.1-1.3-0.2-2.6-0.2-4c0.1-1.6,0.4-3.2,0.2-4.9c-0.1-1.8,0-3.2-0.1-5C2.5,1.6,2.1,0.1,3.7,0
		c2.4-0.1,1.6,2.8,1.4,4.9c0,1.6,0.1,3,0,4.4c-0.1,3.1,0.2,6.1,0.1,8.9c0,0.7-0.2,1.4-0.2,2c-0.1,1-0.1,2-0.2,3
		c-0.2,3.5,0.2,6.5,0.1,10c-0.1,1.8,0,3.5-0.1,5.3c0,0.5-0.1,1.1,0.2,1.4c0.8,0,1.4-0.5,1.9-1.1c1-1.2,1.8-2.3,2.8-3.5
		c0.5-0.6,0.7-1.3,1.2-1.9c0.8-1.2,1.7-2.4,2.4-3.7c0.6-1.3,1.3-2.6,2-4.1c1.2-2.8,2.6-5.6,3.6-8.8c0.5-1.6,0.7-3.4,1.1-5.2
		c0.1-0.8,0.2-1.8,0.5-2.6c0.2-1,0.4-1.9,0.4-2.8c0.1-1.2-0.6-5,1.7-5c1.2,0,1.1,1.9,1.1,2.9C23.5,6.1,23.4,8,23.1,10
		c-0.2,1.6-0.6,3-0.8,4.3c-0.2,1.6-0.6,3-1.1,4.3c-0.5,1.3-0.8,2.6-1.4,3.8c-0.8,1.7-1.4,3.6-2.4,5.4c-0.2,0.5-0.6,1.1-1,1.7
		c-0.6,1.1-1.1,2.2-1.9,3.2c-0.4,0.5-0.7,1.1-1,1.7c-0.4,0.6-0.5,1.2-0.8,1.7c-0.2,0.5-0.7,0.8-1.1,1.3c-0.7,0.8-1.2,1.6-1.9,2.6
		c-0.2,0.4-0.8,0.8-0.7,1.4c0,0.8,1.7,2.2,2.3,2.6c0.4,0.4,0.6,0.5,1,0.7c0.5,0.5,1,1.2,1.4,1.8s1.1,1.2,1.4,1.8
		c0.8,1.4,1.4,2.8,2.3,4.1c1,1.2,1.7,2.6,2.4,4.1c0.4,0.7,0.6,1.6,1,2.3c0.4,0.7,0.8,1.4,1.1,2.2c0.4,1.1,0.6,2.2,1,3.2
		c0.2,1,0.6,2,1,3.1c0.4,1,0.7,2,1,3.1c0.4,1,0.7,2.2,0.8,3.2c0.1,0.7,0.1,1.4,0.2,2.2c0.1,0.6,0.4,1.2,0.5,1.8
		C26.2,78.4,26.1,79.1,26.2,79.9z"/>
	<path class="st0" d="M55.1,71.4c0.1,1.1,0.1,2.2,0.1,3.1c0,1.1,0,2.2,0.1,3.1c0.1,0.7,0.5,1.1,0.5,1.7c0,0.4-0.1,0.8-0.1,1.3
		c0,0.8,0.1,1.7-0.1,2c-0.4,0.7-1.9,1.1-2.5,0.1c-0.4-0.5-0.5-2.2-0.4-3.1c0-1.4,0.1-2.9,0-4.3c-0.1-1.4-0.2-2.9-0.2-4.1
		c0-1,0-1.9,0-2.9c-0.1-2.5-0.5-5.3-0.5-8c0-1.7,0-3.5-0.1-5.5c0-1.7,0.2-4.6-0.2-5.5c-0.6-1.2-2.6-1.1-4.4-1
		c-1.1,0-2.2,0.1-2.4,0.5c-0.5,0.5-0.4,2.2-0.4,3.7c-0.1,1-0.2,2-0.4,3.1c-0.2,2-0.5,4.2-0.7,6.4c0,1-0.2,2-0.4,3
		c-0.1,0.5,0,1.1,0,1.4c-0.1,0.8-0.4,1.6-0.5,2.3c-0.1,1-0.1,1.9-0.1,2.9c-0.1,0.7-0.2,1.6-0.4,2.3c-0.1,1.1,0,2.2-0.2,3
		c-0.1,1.3-0.7,2.4-0.8,3.5c-0.1,0.8,0,1.6-0.2,2c-0.5,1-2,1.3-2.5,0c-0.2-0.6,0-1.8,0.2-2.8c0.6-1.9,0.8-3.4,1.1-5.5
		c0.1-1,0.1-2,0.1-3c0.1-0.8,0.4-1.8,0.5-2.8c0-1,0-2,0.1-3c0.1-1.9,0.6-3.8,0.8-5.5c0.1-1.4,0.1-2.9,0.2-4.4c0-1.3,0.4-2.8,0.5-4.1
		c0.2-3,0.1-5.9,0.5-8.9c0.2-2.9,0.5-5.8,0.6-8.6c0.1-2.3,0.2-4.4,0.4-6.6c0-0.7,0.1-1.4,0.2-2c0-1.2,0-2.4,0.1-3.6
		c0.1-2.4,0.6-4.8,0.7-7.2c0-1.2,0.4-2.4,0.5-3.5C45,9.5,45,8,45.1,6.4c0.1-1.8,0.1-4.7,1.7-4.7h0.1c1.4,0,1.8,0.8,2.3,1.9
		c1.1,2.3,1.6,4.7,1.9,7.6c0.4,3.7,1.3,7.1,1.4,11c0.1,1,0.4,1.8,0.5,2.8c0.5,2.6,0.5,5.6,0.7,8.6c0.1,1,0,2,0.1,3
		c0.2,2,0.4,3.8,0.2,6c0,1-0.1,2,0,3c0.1,0.6,0.5,1,0.5,1.6c0,0.6-0.2,1.1-0.2,1.7c-0.1,1.4,0,2.9,0,4.3c0,0.8-0.1,1.6-0.1,2.3
		c0.1,0.6,0.2,1.2,0.2,1.9c0.1,1.7,0,3.4,0,4.9c0.1,2,0.4,4,0.5,5.9C55.1,69.2,55,70.4,55.1,71.4z M51.4,41.4c0-1.4,0-2.9,0-3.8
		c-0.1-2.6-0.4-5-0.5-7.6c0-1.1-0.2-2.3-0.4-3.5s-0.4-2.4-0.5-3.5c-0.1-1.2-0.2-2.4-0.4-3.6c-0.1-1.2-0.5-2.3-0.6-3.4
		c-0.2-2.2,0-4.3-1-5.8c-0.1,0-0.1,0-0.1,0c-0.5,0.4-0.7,1.4-1,2.4c-0.2,1.9-0.2,3.6-0.5,5.4c-0.1,0.8-0.4,1.7-0.4,2.5
		c-0.1,1.1,0,2.2-0.1,3.2s-0.2,2.2-0.4,3.2c-0.2,3.4,0.1,6.5-0.4,9.5c-0.2,1.9-0.4,3.7-0.5,5.9c0,1.1-0.2,2.5,0,2.9
		c0.5,0.8,2,0.6,3.2,0.5c1.4-0.1,2.6,0.1,3.1-0.7S51.4,42.6,51.4,41.4z"/>
	<path class="st0" d="M106.6,76.6c0,1.3,1.1,4.3,0.4,5.4c-0.7,0.8-2.5,0.5-2.9-0.1c-0.6-0.7-0.6-2.9-0.5-4.4c0.1-1.8,0-3.5,0-5
		c-0.1-3.4-0.2-6.7-0.5-9.8c-0.5-6.5,0.1-13.2-0.6-19.8c-0.7-6-1-12.7-1.3-19.3c-0.2-5.6-0.4-11.5-1.9-16.1c-0.2-0.7-0.5-1.7-1-1.7
		c-0.6,0-1,1.1-1.1,1.6c-0.4,0.8-0.5,1.6-0.5,2.2c-0.1,1-0.2,1.7-0.4,2.4c0,1,0.1,1.6,0,2.5c-0.2,1.4-0.6,3-0.7,4.6
		c-0.2,1.7-0.1,3.5-0.2,4.9c-0.1,1.6-0.4,3.2-0.4,4.9s-0.5,3.2-0.5,4.8c-0.1,1.8-0.4,3.2-0.5,4.8c-0.1,1.8,0,3.5-0.2,5
		c-0.2,1.4-0.4,3.1-0.5,4.8c-0.1,1.7-0.6,3.2-0.8,4.4c-0.2,1.6-0.4,3.1-0.6,4.7c-0.2,1.6-0.5,3.1-0.7,4.6C91,64,91,66.8,90.6,69
		c-0.2,0.8-0.2,1.7-0.2,2.5c-0.1,3.5-0.1,7-2.2,8.4c-0.5,0.4-1.7,0.6-2.5,0.2c-0.7-0.2-1.6-2.4-1.7-3.4c-0.2-1-0.2-2.2-0.2-3.2
		c-0.1-3.1-0.6-6.2-0.8-9.4c-0.5-8.5-1.3-16.8-2.6-24.7c-0.7-4-1.2-8-1.7-12.1c0-0.4-0.1-0.8-0.2-1.4c-0.7-3.2-0.7-7.2-1.4-10.6
		c-0.7-2.9-1.1-5.5-1.8-8.4c-0.2-0.8-0.5-2.4-1.2-2.3c-0.2,0-0.5,0.1-0.6,1.1c-0.2,2.6-0.2,5.6-0.1,7.9c0,1-0.1,1.9-0.1,3.2
		c0.2,4.3-0.5,8.5-0.4,12.6c0,1.7,0.1,3.5,0.1,5.2c0.1,1.8,0,3.6-0.1,5.3c0,0.8-0.1,1.7-0.2,2.5c0,2.5,0.5,5,0.4,7.8
		c-0.1,1.2-0.2,2.6-0.4,4c0,1.3,0.2,2.6,0.1,4.1c0,0.5-0.1,1-0.2,1.6c-0.1,1.4,0.2,3,0.2,4.4c0,0.6-0.1,1.3-0.1,1.9
		c0,0.7,0,1.4-0.1,2c0,1.4,0,2.8-0.1,4.1c0,0.8-0.2,1.6-0.2,2.4c-0.1,0.8-0.1,1.7-0.1,2.4c-0.1,0.7-0.4,1.6-0.4,2.4
		c0,1.1,0.1,1.9-0.1,2.5c-0.2,0.6-0.8,1.1-1.4,1.2c-1,0.1-1.9-0.6-2-1.1c-0.1-0.8,0.6-2.4,0.7-3.7c0.2-1.4,0.4-2.9,0.4-4.2
		c0-1.3,0.2-2.8,0.4-4.2c0.4-7,0.2-14.9,0.4-22c0-2.3,0-4.6,0.1-6.7c0.2-2.3,0.1-4.4,0-6.6c-0.2-4.6,0.1-9,0.1-13.2
		c0-0.7,0.1-1.4,0.1-2.2c0-0.6-0.1-1.2-0.1-1.9c-0.1-0.7,0.1-1.3,0.2-1.9c0-0.5-0.1-1.3-0.1-1.8c0-1.6,0.4-3.5,0.4-5.4
		c0-0.8,0-1.7,0-2.6s-0.2-2,0.1-2.8c0.4-0.8,1.7-1.3,2.4-1.4c3.4-0.2,4.3,2.5,4.8,5.4c0.2,1.3,0.6,2.8,0.8,4c0.6,2.9,1,5.6,1.3,8.5
		c0.2,1.4,0.4,2.9,0.6,4.3s0.5,2.9,0.7,4.2c0.2,1.6,0.2,3,0.5,4.4c0.2,1.4,0.6,2.6,0.8,4c0.6,2.8,0.8,5.8,1.2,8.5
		c0.5,3,1,5.9,1.2,8.6c0.1,1.6,0.1,3.1,0.4,4.7c0.4,2.9,0.2,5.9,1,8.8c0.1,0.6,0.2,1.3,0.4,1.9c0.1,0.7,0.1,1.4,0.6,1.9
		c0.5-0.4,0.4-1.2,0.5-1.9c0.1-2.2,0.4-4.3,0.6-6.4c0.7-8.4,2.3-16.3,2.9-25.2c0.1-2.8,0.6-5.8,0.7-8.6c0-1.4,0.2-2.9,0.5-4.3
		c0.1-1.4,0-2.9,0.2-4.3c0.6-3.8,1-8.4,1.6-12.5c0.4-2.2,0.1-4.3,1.7-5c0.7-0.4,2.5-0.5,3.4-0.2c2,0.5,2.9,4.6,3.4,6.8
		c0.6,3,1.1,5.9,1.2,9.1c0.2,3.4,0.2,6.5,0.5,9.8c0.1,3,0.7,6.2,0.8,9.5c0.1,1.6,0.1,3.1,0.4,4.8c0.1,1.6,0.1,3.2,0.2,4.8
		c0.2,3.4,0.2,6.5,0.4,10c0,1.7,0,3.2,0.1,4.9c0.1,3.1-0.1,6.5,0.1,9.7C106.5,73.4,106.6,75,106.6,76.6z"/>
	<path class="st0" d="M139.8,23.5c0,0.8,0.1,1.7,0.1,2.5c0,0.4-0.1,1-0.1,1.4c-0.1,0.6-0.1,1.2-0.1,1.6c-0.5,1.9-1.6,4.1-2.4,5.6
		c-0.2,0.5-0.8,1-1.3,1.4c-0.5,0.5-1,0.8-1.3,1.2c-1.6,1.1-3.4,1.6-5.4,2.2c-1.4,0.4-2.5,0.7-4.2,1c-0.8,0.1-1.6,0.2-1.8,0.7
		c-0.7,1.2-0.2,4.1-0.4,6c-0.1,2.2,0,4.2,0,6.1c0.1,2.4-0.1,5.2,0,7.9c0,1.3,0,2.6,0,4c0,1.3,0.1,2.8,0,4c0,1-0.2,2-0.2,3.1
		c0,1,0,2.2,0,3.2c-0.1,1.1-0.4,2.4-0.1,3.7c0.1,1.2,0.5,2.6,0,3.4c-0.6,1-2.3,1-2.9,0.1c-0.7-1,0-3.4,0.1-4.7c0-1,0-2,0-3
		c0-0.7,0.1-1.3,0.1-2c0.2-5,0-10.2,0.2-15.2c0.1-4.4-0.1-8.9,0-13.2c0.1-1.4,0.4-2.8,0.4-4.2c0.1-5.4-0.2-10.8,0-16.2
		c0.2-3.8-0.1-8-0.1-12.1c0-0.7,0-1.4,0-2c0-0.7-0.2-1.3-0.2-1.9c0-0.7,0-1.4,0-2.2c0-0.5-0.2-1-0.1-1.4c0-0.4,0.2-0.8,0.4-1.3
		c0.1-0.4,0.2-1,0.6-1.1c0.2-0.2,1-0.1,1.6-0.2c0.6,0,1.2,0,1.7,0c2.5-0.2,5.2,1,7.3,1.7c0.5,0.2,1.3,1.1,1.9,1.6
		c1.2,0.8,2,2.2,2.9,3.5c0.8,1.2,1.6,2.6,2,4.3c0.4,1.7,1,3.2,1.1,5.4c0,0.8,0.2,1.8,0.4,2.8C139.9,21.8,139.8,22.7,139.8,23.5z
		 M136.7,25.7c0-1,0.1-2,0-3c0-0.5-0.1-1-0.1-1.4c-0.1-1-0.1-1.8-0.1-2.6c-0.1-0.6,0-1.2-0.1-1.7c-0.1-0.8-0.5-1.9-0.7-2.9
		c-0.2-1.1-0.6-2-0.8-2.9c-0.2-0.5-0.7-1.1-1.1-1.6c-1-1.4-2.3-3.1-3.7-3.8c-0.5-0.4-1.3-0.5-2.2-0.7c-1.1-0.4-2.2-0.7-3.2-0.6
		c-0.5,0-1.7,0.1-1.9,0.6c-0.2,0.4-0.1,1.8-0.1,2.4c0.2,2.5,0.2,4.8,0.4,7.4c0,1.6,0,3.4,0,5.2c0.1,1.9,0,3.8,0,5.2
		c0,0.8,0.1,1.9,0.1,3c0,2.3,0,4.1,0,6.4c0,0.7,0,2.6,0.4,2.9c0.7,0.5,3.2-0.4,3.8-0.5c0.5-0.1,0.8-0.1,1.2-0.1
		c1.7-0.4,3.2-1.2,4.3-2.2c0.5-0.4,1.1-0.6,1.4-1c0.8-0.8,1.1-2.4,1.7-3.7c0.2-0.5,0.5-0.8,0.6-1.3C136.7,28,136.7,26.8,136.7,25.7z
		"/>
	<path class="st0" d="M168.1,71.4c0.1,1.1,0.1,2.2,0.1,3.1c0,1.1,0,2.2,0.1,3.1c0.1,0.7,0.5,1.1,0.5,1.7c0,0.4-0.1,0.8-0.1,1.3
		c0,0.8,0.1,1.7-0.1,2c-0.4,0.7-1.9,1.1-2.5,0.1c-0.4-0.5-0.5-2.2-0.4-3.1c0-1.4,0.1-2.9,0-4.3c-0.1-1.4-0.2-2.9-0.2-4.1
		c0-1,0-1.9,0-2.9c-0.1-2.5-0.5-5.3-0.5-8c0-1.7,0-3.5-0.1-5.5c0-1.7,0.2-4.6-0.2-5.5c-0.6-1.2-2.6-1.1-4.4-1
		c-1.1,0-2.2,0.1-2.4,0.5c-0.5,0.5-0.4,2.2-0.4,3.7c-0.1,1-0.2,2-0.4,3.1c-0.2,2-0.5,4.2-0.7,6.4c0,1-0.2,2-0.4,3
		c-0.1,0.5,0,1.1,0,1.4c-0.1,0.8-0.4,1.6-0.5,2.3c-0.1,1-0.1,1.9-0.1,2.9c-0.1,0.7-0.2,1.6-0.4,2.3c-0.1,1.1,0,2.2-0.2,3
		c-0.1,1.3-0.7,2.4-0.8,3.5c-0.1,0.8,0,1.6-0.2,2c-0.5,1-2,1.3-2.5,0c-0.2-0.6,0-1.8,0.2-2.8c0.6-1.9,0.8-3.4,1.1-5.5
		c0.1-1,0.1-2,0.1-3c0.1-0.8,0.4-1.8,0.5-2.8c0-1,0-2,0.1-3c0.1-1.9,0.6-3.8,0.8-5.5c0.1-1.4,0.1-2.9,0.2-4.4c0-1.3,0.4-2.8,0.5-4.1
		c0.2-3,0.1-5.9,0.5-8.9c0.2-2.9,0.5-5.8,0.6-8.6c0.1-2.3,0.2-4.4,0.4-6.6c0-0.7,0.1-1.4,0.2-2c0-1.2,0-2.4,0.1-3.6
		c0.1-2.4,0.6-4.8,0.7-7.2c0-1.2,0.4-2.4,0.5-3.5c0.2-1.4,0.2-2.9,0.4-4.6c0.1-1.8,0.1-4.7,1.7-4.7h0.1c1.4,0,1.8,0.8,2.3,1.9
		c1.1,2.3,1.6,4.7,1.9,7.6c0.4,3.7,1.3,7.1,1.4,11c0.1,1,0.4,1.8,0.5,2.8c0.5,2.6,0.5,5.6,0.7,8.6c0.1,1,0,2,0.1,3
		c0.2,2,0.4,3.8,0.2,6c0,1-0.1,2,0,3c0.1,0.6,0.5,1,0.5,1.6c0,0.6-0.2,1.1-0.2,1.7c-0.1,1.4,0,2.9,0,4.3c0,0.8-0.1,1.6-0.1,2.3
		c0.1,0.6,0.2,1.2,0.2,1.9c0.1,1.7,0,3.4,0,4.9c0.1,2,0.4,4,0.5,5.9C168.1,69.2,168,70.4,168.1,71.4z M164.4,41.4c0-1.4,0-2.9,0-3.8
		c-0.1-2.6-0.4-5-0.5-7.6c0-1.1-0.2-2.3-0.4-3.5s-0.4-2.4-0.5-3.5c-0.1-1.2-0.2-2.4-0.4-3.6c-0.1-1.2-0.5-2.3-0.6-3.4
		c-0.2-2.2,0-4.3-1-5.8c-0.1,0-0.1,0-0.1,0c-0.5,0.4-0.7,1.4-1,2.4c-0.2,1.9-0.2,3.6-0.5,5.4c-0.1,0.8-0.4,1.7-0.4,2.5
		c-0.1,1.1,0,2.2-0.1,3.2c-0.1,1.1-0.2,2.2-0.4,3.2c-0.2,3.4,0.1,6.5-0.4,9.5c-0.2,1.9-0.4,3.7-0.5,5.9c0,1.1-0.2,2.5,0,2.9
		c0.5,0.8,2,0.6,3.2,0.5c1.4-0.1,2.6,0.1,3.1-0.7S164.4,42.6,164.4,41.4z"/>
	<path class="st0" d="M200.1,79.8c0.4,0.2,0.8,1.1,0.6,1.8c-0.4,1.6-2.5,1-4.3,1.1c-2,0.1-4.8,0.5-6.8,0.4c-0.7,0-1.4,0.1-2,0.1
		c-2.3-0.2-4.2-0.4-4.9-2.8c-0.8-2.5-0.7-4.9-0.8-7.6c0-0.5-0.2-1.1-0.2-1.4c0-0.7,0.2-1.4,0.2-2.3c0.1-2.8,0.1-5.4,0.1-8.3
		c0.1-7-0.1-14.5-0.4-21.5c-0.1-2.2-0.1-4.4,0-6.7c0.1-3.1,0.1-6.1,0.2-9.2c0.1-1.4,0.2-2.9,0.2-4.4c0-1.1-0.1-2.5-0.1-3.8
		c0-2.8,0-6.4,0.2-9.4c0.1-1.9-0.2-3.4,1.3-3.6c0.7-0.2,1.8,0.1,2,1c0.2,0.7-0.1,1.8-0.2,2.9c-0.2,1.8-0.2,3.8-0.1,5.4
		c0,1.6,0.2,3.4,0.2,5.2c0,1.2,0.2,2.3,0.2,3.4c0,2-0.5,4-0.5,6c0,1,0.1,1.9,0.1,2.9c0,1.1-0.1,2.3-0.2,3.4
		c-0.1,1.2-0.1,2.4-0.1,3.6c-0.1,2.3,0.1,4.4,0.2,6.8c0,1.2,0,2.5,0.1,3.8c0.1,2.6,0.1,5.3,0.1,7.7c0,1.3-0.2,2.5-0.4,3.7
		c-0.1,2.9-0.1,6.1,0,9c0,2.3,0,4.3,0.1,6.7c0.1,2.3,0.2,5.3,1.3,6c0.8,0.6,2.2,0.4,3.4,0.2c1.1,0,2.3,0,3.4,0c1.2,0,2-0.2,3.5-0.2
		C197.8,79.6,199.3,79.3,200.1,79.8z"/>
	<path class="st0" d="M230.1,71.4c0.1,1.1,0.1,2.2,0.1,3.1c0,1.1,0,2.2,0.1,3.1c0.1,0.7,0.5,1.1,0.5,1.7c0,0.4-0.1,0.8-0.1,1.3
		c0,0.8,0.1,1.7-0.1,2c-0.4,0.7-1.9,1.1-2.5,0.1c-0.4-0.5-0.5-2.2-0.4-3.1c0-1.4,0.1-2.9,0-4.3c-0.1-1.4-0.2-2.9-0.2-4.1
		c0-1,0-1.9,0-2.9c-0.1-2.5-0.5-5.3-0.5-8c0-1.7,0-3.5-0.1-5.5c0-1.7,0.2-4.6-0.2-5.5c-0.6-1.2-2.6-1.1-4.4-1
		c-1.1,0-2.2,0.1-2.4,0.5c-0.5,0.5-0.4,2.2-0.4,3.7c-0.1,1-0.2,2-0.4,3.1c-0.2,2-0.5,4.2-0.7,6.4c0,1-0.2,2-0.4,3
		c-0.1,0.5,0,1.1,0,1.4c-0.1,0.8-0.4,1.6-0.5,2.3c-0.1,1-0.1,1.9-0.1,2.9c-0.1,0.7-0.2,1.6-0.4,2.3c-0.1,1.1,0,2.2-0.2,3
		c-0.1,1.3-0.7,2.4-0.8,3.5c-0.1,0.8,0,1.6-0.2,2c-0.5,1-2,1.3-2.5,0c-0.2-0.6,0-1.8,0.2-2.8c0.6-1.9,0.8-3.4,1.1-5.5
		c0.1-1,0.1-2,0.1-3c0.1-0.8,0.4-1.8,0.5-2.8c0-1,0-2,0.1-3c0.1-1.9,0.6-3.8,0.8-5.5c0.1-1.4,0.1-2.9,0.2-4.4c0-1.3,0.4-2.8,0.5-4.1
		c0.2-3,0.1-5.9,0.5-8.9c0.2-2.9,0.5-5.8,0.6-8.6c0.1-2.3,0.2-4.4,0.4-6.6c0-0.7,0.1-1.4,0.2-2c0-1.2,0-2.4,0.1-3.6
		c0.1-2.4,0.6-4.8,0.7-7.2c0-1.2,0.4-2.4,0.5-3.5c0.2-1.4,0.2-2.9,0.4-4.6c0.1-1.8,0.1-4.7,1.7-4.7h0.1c1.4,0,1.8,0.8,2.3,1.9
		c1.1,2.3,1.6,4.7,1.9,7.6c0.4,3.7,1.3,7.1,1.4,11c0.1,1,0.4,1.8,0.5,2.8c0.5,2.6,0.5,5.6,0.7,8.6c0.1,1,0,2,0.1,3
		c0.2,2,0.4,3.8,0.2,6c0,1-0.1,2,0,3c0.1,0.6,0.5,1,0.5,1.6c0,0.6-0.2,1.1-0.2,1.7c-0.1,1.4,0,2.9,0,4.3c0,0.8-0.1,1.6-0.1,2.3
		c0.1,0.6,0.2,1.2,0.2,1.9c0.1,1.7,0,3.4,0,4.9c0.1,2,0.4,4,0.5,5.9C230.1,69.2,229.9,70.4,230.1,71.4z M226.3,41.4
		c0-1.4,0-2.9,0-3.8c-0.1-2.6-0.4-5-0.5-7.6c0-1.1-0.2-2.3-0.4-3.5s-0.4-2.4-0.5-3.5c-0.1-1.2-0.2-2.4-0.4-3.6
		c-0.1-1.2-0.5-2.3-0.6-3.4c-0.2-2.2,0-4.3-1-5.8c-0.1,0-0.1,0-0.1,0c-0.5,0.4-0.7,1.4-1,2.4c-0.2,1.9-0.2,3.6-0.5,5.4
		c-0.1,0.8-0.4,1.7-0.4,2.5c-0.1,1.1,0,2.2-0.1,3.2s-0.2,2.2-0.4,3.2c-0.2,3.4,0.1,6.5-0.4,9.5c-0.2,1.9-0.4,3.7-0.5,5.9
		c0,1.1-0.2,2.5,0,2.9c0.5,0.8,2,0.6,3.2,0.5c1.4-0.1,2.6,0.1,3.1-0.7S226.3,42.6,226.3,41.4z"/>
</g>
</svg>
