<?xml version="1.0" encoding="utf-8"?>
<!-- Generator: Adobe Illustrator 19.2.0, SVG Export Plug-In . SVG Version: 6.00 Build 0)  -->
<svg version="1.1" id="Layer_1" xmlns="http://www.w3.org/2000/svg" xmlns:xlink="http://www.w3.org/1999/xlink" x="0px" y="0px"
	 viewBox="0 0 100 100" style="enable-background:new 0 0 100 100;" xml:space="preserve">
<style type="text/css">
	.st0{fill:#FFFFFF;}
</style>
<g>
	<path class="st0" d="M81.3,96H18.7C8.3,96,0,87.7,0,77.3V23.4C0,13,8.3,4.8,18.7,4.8h62.7C91.7,4.8,100,13,100,23.4v53.9
		C100,87.7,91.7,96,81.3,96z M18.7,9.4c-7.8,0-14.1,6.2-14.1,14.1v53.9c0,7.8,6.2,14.1,14.1,14.1h62.7c7.8,0,14.1-6.2,14.1-14.1
		V23.4c0-7.8-6.2-14.1-14.1-14.1C81.3,9.4,18.7,9.4,18.7,9.4z"/>
	<g>
		<path class="st0" d="M74.9,35.2H25.3c-1.4,0-2.3-0.9-2.3-2.3s0.9-2.3,2.3-2.3h49.5c1.4,0,2.3,0.9,2.3,2.3S76,35.2,74.9,35.2z"/>
		<path class="st0" d="M74.9,52.7H25.3c-1.4,0-2.3-0.9-2.3-2.3c0-1.4,0.9-2.3,2.3-2.3h49.5c1.4,0,2.3,0.9,2.3,2.3
			C77.2,51.8,76,52.7,74.9,52.7z"/>
		<path class="st0" d="M74.9,70.2H25.3c-1.4,0-2.3-0.9-2.3-2.3s0.9-2.3,2.3-2.3h49.5c1.4,0,2.3,0.9,2.3,2.3S76,70.2,74.9,70.2z"/>
	</g>
</g>
</svg>
