<?xml version="1.0" encoding="utf-8"?>
<!-- Generator: Adobe Illustrator 19.2.0, SVG Export Plug-In . SVG Version: 6.00 Build 0)  -->
<svg version="1.1" id="Layer_1" xmlns="http://www.w3.org/2000/svg" xmlns:xlink="http://www.w3.org/1999/xlink" x="0px" y="0px"
	 viewBox="0 0 100 100" style="enable-background:new 0 0 100 100;" xml:space="preserve">
<style type="text/css">
	.st0{fill:#FFFFFF;}
</style>
<g>
	<path class="st0" d="M66.9,25c0-2.6-2-4.6-4.6-5c-0.2,0-0.4,0-0.6,0H33.1c-0.2,0-0.4,0-0.6,0c-2.4,0.2-4.4,2.2-4.6,4.8V25v50.1v0.2
		c0.2,2.6,2,4.6,4.6,4.8h6.1c0-1.8,0-3.4,0-4c-0.2-2.6-0.8-4.8-1.4-6.9c-0.8-3,0-7.1-1.4-9.7c-0.4-0.8-1.4-1.8-2-2.8
		c-1.4-2-2.6-3.4-4-5.3c-0.6-0.8-1.4-2.2-1.4-3c0-0.6,0.2-1,1.2-1c1.2-0.2,1.8,1.2,2.4,2c0.8,1,1.6,1.8,2,2.4
		c1.6,1.8,2.4,3.6,4.8,4.2C38,52.7,37,48.7,36,45c-0.4-1.8-1-4.6,1.2-4.6c1.2,0,1.8,1.8,2,3c0.4,1.4,0.8,2.8,1.2,3.8
		c1,2.8,1.2,5.7,3,7.1c0.8-1.8,0.6-5,0.8-8.1c0.2-2-0.2-7.1,1.4-7.7c2.8-0.8,2.2,3.4,2.2,5c0,3.4,0.2,7.5,0,10.5
		c1.2-0.4,1.6-1.8,2.2-2.8c0.6-1,1.2-2.2,1.8-3.4c0.6-1.4,1.8-6.5,3.8-6.3c1.6,0.2,1.2,2,0.8,3.4c-1.6,5.1-3.4,9.7-4.6,14.5
		c1,1.4,0.6,2.8,2,3.4c3,1.4,5.1-1.8,7.7-2.8c1.6-0.6,4.8-0.6,4.8,1.2c0,0.2,0,0.4,0,0.4c-0.2,0.8-1.4,0.6-2.4,1.2
		c-1.2,0.6-2.6,2-4,3c-1.2,0.8-2.4,2.2-3.8,3.2c-1.4,1-2.6,1.8-4,3c-0.8,1-2,1.6-2.2,2.2c-0.4,1,0,2,0.2,3.4c0,0.4,0,1.6,0,3h12.1
		c2.6-0.2,4.4-2.4,4.6-5c0,0,0,0,0-0.2L66.9,25C66.9,25.2,66.9,25.2,66.9,25z"/>
	<path class="st0" d="M23,48.1c0-1.4-1.2-2.8-2.6-2.8c-0.2,0-0.2,0-0.4,0H3.2c-0.2,0-0.2,0-0.4,0c-1.4,0.2-2.6,1.4-2.6,2.8v0.2v29.1
		v0.2c0,1.4,1.2,2.6,2.6,2.8h3.6c0-1,0-2,0-2.4c0-1.4-0.6-2.8-0.8-4c-0.4-1.8,0-4.2-0.8-5.7c-0.2-0.4-0.8-1-1.2-1.6
		c-0.8-1.2-1.6-2-2.2-3.2c-0.2-0.4-0.8-1.2-0.8-1.8c0-0.4,0.2-0.6,0.6-0.6c0.6,0,1,0.6,1.4,1.2c0.4,0.6,0.8,1,1.2,1.4
		c1,1,1.4,2,2.8,2.4c-0.4-2-1-4.2-1.6-6.3c-0.2-1.2-0.6-2.6,0.8-2.6c0.8,0,1,1,1.2,1.8c0.2,0.8,0.4,1.6,0.8,2.2
		c0.6,1.6,0.6,3.4,1.8,4.2c0.6-1,0.4-2.8,0.6-4.8c0-1.2,0-4.2,0.8-4.6c1.6-0.6,1.2,2,1.2,3c0,2,0.2,4.4,0,6.1c0.8-0.2,1-1,1.2-1.6
		c0.4-0.6,0.6-1.2,1-2c0.4-0.8,1-3.8,2.2-3.8c1,0,0.8,1.2,0.6,2c-0.8,3-2,5.5-2.6,8.3c0.6,0.8,0.4,1.6,1.2,2c1.6,0.8,3-1.2,4.6-1.6
		c1-0.4,2.8-0.2,2.8,0.8v0.2c-0.2,0.4-0.8,0.4-1.4,0.6c-0.8,0.4-1.6,1.2-2.4,1.8s-1.4,1.2-2.2,1.8c-0.8,0.6-1.6,1-2.2,1.8
		c-0.6,0.6-1.2,1-1.2,1.2c-0.2,0.6,0,1.2,0,2c0,0.2,0,1,0,1.8h6.9c1.4-0.2,2.6-1.4,2.6-2.8l0,0L23,48.1L23,48.1z"/>
	<path class="st0" d="M72.1,40.8c0-1.8,1.4-3.4,3.2-3.6c0.2,0,0.2,0,0.4,0h20.8c0.2,0,0.2,0,0.4,0c1.8,0.2,3.2,1.6,3.2,3.4v0.2v35.8
		v0.2c0,1.8-1.4,3.2-3.2,3.4h-4.4c0-1.4,0-2.4,0-3c0.2-1.8,0.6-3.4,1-5c0.6-2.2,0-5.1,1-6.9c0.2-0.6,1-1.2,1.4-2
		c1-1.4,1.8-2.4,2.8-3.8c0.4-0.6,1-1.6,1-2.2c0-0.4-0.2-0.8-0.8-0.8C98,56.4,97.4,57.4,97,58c-0.6,0.8-1,1.2-1.4,1.8
		c-1.2,1.2-1.8,2.6-3.4,3c0.6-2.4,1.4-5.1,2-7.7c0.4-1.4,0.8-3.4-0.8-3.2c-1,0-1.2,1.4-1.4,2.2c-0.4,1-0.6,2-0.8,2.8
		c-0.6,2-0.8,4-2.2,5.1c-0.6-1.4-0.4-3.4-0.6-5.7c0-1.4,0.2-5.1-1-5.5c-2-0.6-1.6,2.4-1.6,3.6c0,2.4-0.2,5.3,0,7.5
		c-1-0.2-1.2-1.2-1.6-2c-0.4-0.8-0.8-1.6-1.2-2.4c-0.4-1-1.2-4.6-2.8-4.6c-1.2,0-1,1.4-0.6,2.4c1,3.6,2.4,6.9,3.2,10.3
		c-0.6,1-0.4,2-1.4,2.4c-2,1-3.8-1.4-5.5-2c-1.2-0.4-3.4-0.4-3.4,0.8c0,0.2,0,0.2,0,0.4c0.2,0.6,1,0.4,1.6,0.8
		c0.8,0.4,2,1.4,2.8,2.2c1,0.6,1.8,1.6,2.8,2.2c1,0.8,1.8,1.2,2.8,2.2c0.6,0.6,1.4,1.2,1.6,1.6c0.2,0.8,0,1.4,0,2.4
		c0,0.4,0,1.2,0,2.2h-8.5c-1.8-0.2-3.2-1.6-3.2-3.6l0,0L72.1,40.8L72.1,40.8z"/>
</g>
</svg>
